<?xml version="1.0" encoding="UTF-8"?>
<CustomTab xmlns="http://soap.sforce.com/2006/04/metadata">
    <label>StrmBkngIFrame</label>
    <mobileReady>false</mobileReady>
    <motif>Custom75: IP Phone</motif>
    <page>StrmBkngIframe</page>
</CustomTab>
